<svg viewBox="0 0 450 370" xmlns="http://www.w3.org/2000/svg" fill-rule="evenodd" clip-rule="evenodd" stroke-linejoin="round" stroke-miterlimit="1.414">
    <path d="M117.283 179.07c.705.286.268.719.006 1.187-.79 1.428-1.536 2.885-2.13 4.404 0 0-.19.409-.515.376-.562-.058-.232-1.063.111-1.833.443-.989.929-1.959 1.445-2.912.298-.551.43-1.304 1.083-1.222zm5.933-8.401c.813.27.222.815-.15 1.253a54.78 54.78 0 0 0-2.967 3.85s-.028.198-.344.254c-.358.064-.669-.34-.468-.729a56.067 56.067 0 0 1 3.351-4.318s.063-.34.578-.31zm78.192-.698c.524.189.51.381.728.584 1.175 1.101 2.322 2.234 3.365 3.46 0 0 .182.204.163.409-.039.444-.561.563-1.036.013-1.112-1.268-2.316-2.449-3.557-3.59 0 0-.135-.042-.21-.276-.09-.282-.003-.646.547-.6zm-70.71-6.35c1.353.37-.624 1.445-2.057 2.676-.781.671-1.814 1.64-1.814 1.64s-.299.337-.6.249c-.303-.089-.514-.388-.192-.789a51.294 51.294 0 0 1 4.208-3.603s.091-.175.455-.173zm62.598.07s1.536.988 2.735 1.855a66.45 66.45 0 0 1 1.955 1.469s.175.085.206.335c.043.36-.377.649-.755.425-.214-.168-.43-.333-.647-.499a66.805 66.805 0 0 0-3.82-2.697s-.21-.026-.277-.345c-.062-.29.061-.643.603-.543zm-9.134-4.919s1.643.709 2.916 1.344c.766.383 1.524.783 2.275 1.195 0 0 .309.23.235.527-.066.267-.258.464-.682.297a61.326 61.326 0 0 0-4.869-2.412s-.167.002-.323-.21c-.201-.273-.161-.754.448-.741zm-44.535-.413c1.219.646-1.062 1.342-2.683 2.217-.736.397-1.46.817-2.175 1.251 0 0-.227.168-.489.027-.29-.157-.314-.576-.024-.812a45.797 45.797 0 0 1 4.599-2.478c.247-.116.424-.285.772-.205zm34.818-2.878a59.9 59.9 0 0 1 5.261 1.538s.284-.031.445.3c.158.326-.146.736-.576.647a61.458 61.458 0 0 0-5.227-1.544s-.296-.049-.413-.241c-.177-.289-.096-.764.51-.7zm-25.068-.367c.729.345.263.835-.462.997a51.262 51.262 0 0 0-4.924 1.39s-.223.062-.379-.015c-.318-.155-.468-.605.052-.864a49.31 49.31 0 0 1 5.374-1.499s.18-.038.339-.009zm15.053-1.135a61.09 61.09 0 0 1 5.229.557s.247-.078.458.211c.249.342.164.831-.913.669a59.294 59.294 0 0 0-5.084-.516s-.373-.087-.432-.373c-.063-.301-.049-.593.742-.548zm-4.859-.072c.694.266.335.855-.098.924a60.274 60.274 0 0 0-5.515.404s-.321.031-.478-.176c-.191-.252-.182-.619.315-.748a57.668 57.668 0 0 1 5.654-.417l.122.013zM163.329 307.513c.55.293.452.555.606.847.753 1.45 1.477 2.917 2.08 4.433 0 0 .193.13-.099.546l-.513.09s-.385-.614-.664-1.252a59.024 59.024 0 0 0-1.908-3.899s-.13.002-.086-.451l.402-.331.182.017zm-5.405-8.657s1.11 1.452 1.952 2.702c.456.678.899 1.363 1.333 2.055 0 0 .225.1.014.568l-.488.184-.291-.208c-.148-.238-.299-.474-.449-.71a76.394 76.394 0 0 0-2.692-3.912s-.337-.177.1-.656c0 0 .279-.111.521-.023zm-6.767-7.855s1.314 1.274 2.288 2.344a76.223 76.223 0 0 1 1.573 1.79l.227.482-.165.319c-.364.201-.517.058-.517.058s-1.092-1.237-2.042-2.27a68.031 68.031 0 0 0-1.877-1.959s-.182-.104-.1-.512c0 0 .06-.363.613-.252zm-7.924-6.695s.508.319.884.594a63.63 63.63 0 0 1 3.476 2.76s.292.075.422.545c0 0-.059.548-.615.479 0 0-2.371-1.98-4.467-3.485 0 0-.278.002-.262-.541 0 0-.002-.369.562-.352zm-8.799-5.16a57.583 57.583 0 0 1 4.992 2.64l.243.482c-.14.392-.35.387-.35.387a.614.614 0 0 1-.355-.053 53.92 53.92 0 0 0-4.927-2.607l-.27-.445.152-.325c.18-.11.086-.185.515-.079zm-9.791-3.469c1.798.45 3.571.996 5.316 1.622l.371.282-.079.514s-.095.188-.506.124a56.794 56.794 0 0 0-5.256-1.614l-.362-.232-.052-.355c.25-.53.358-.351.568-.341zm-25.13-.835l.29.211c.143.391-.022.521-.022.521a.617.617 0 0 1-.306.187c-1.013.158-2.02.339-3.025.538-.818.162-1.633.338-2.447.523l-.566-.377.194-.484s3.059-.704 5.66-1.121c0 0 .124-.002.222.002zm15.046-.749c1.753.124 3.501.321 5.239.594l.522.223c.173.378.019.521.019.521-.283.304-.474.216-.474.216a59.947 59.947 0 0 0-5.543-.63s-.356.117-.437-.499l.318-.412s.164-.025.356-.013zm-4.715-.107l.293.43-.285.436s-1.667.055-3.011.126c-.916.048-1.831.117-2.746.201l-.457-.249-.033-.357c.199-.366.405-.328.405-.328a70.878 70.878 0 0 1 5.531-.292s.127-.001.303.033zm-18.804-7.917c.335.205.469.69.649 1.119a37.3 37.3 0 0 1 1.192 3.295c.086.275.17.551.251.828.066.226.151.433.062.712 0 0-.048.204-.463.238l-.398-.337a50.759 50.759 0 0 0-.223-.76c-.457-1.495-.98-2.965-1.623-4.384l-.049-.433.422-.307.18.029zm-7.108-7.033c1.897.493 3.556 1.651 4.838 3.15 0 0 .227.067.085.552 0 0-.043.206-.457.251 0 0-.802-.755-1.398-1.28a8.073 8.073 0 0 0-3.14-1.722l-.328-.123c-.277-.311-.171-.492-.171-.492l.389-.346.182.01zm-4.646-.164l.281.224c.126.396-.045.519-.045.519-.438.37-.619.209-.909.246l-.524.072c-1.458.213-2.912.47-4.385.555l-.442-.116-.126-.506.419-.309c.287-.014.288-.015.596-.039 1.634-.141 3.238-.459 4.878-.653 0 0 .131-.004.257.007zm-15.383-2.097a53.901 53.901 0 0 0 5.141 1.916l.359.254-.052.518-.499.15c-1.79-.549-3.54-1.224-5.264-1.953 0 0-.079.065-.304-.279l.107-.51s.26-.149.512-.096zm-9.154-4.611a94.859 94.859 0 0 0 4.855 2.619s.093-.068.306.305c0 0 .118.174-.136.503 0 0-.115.175-.517.066a89.98 89.98 0 0 1-4.798-2.578s-.215-.017-.397-.388c0 0-.107-.181.168-.493 0 0 .276-.117.519-.034zm-8.715-5.731s1.388.997 2.548 1.806c.671.468 1.349.925 2.033 1.375 0 0 .362-.011.369.586l-.365.372c-.678.007-.724-.309-1.033-.514a89.17 89.17 0 0 1-3.832-2.708s-.158.011-.301-.398c0 0-.084-.192.226-.469 0 0 .153-.062.355-.05zm-7.697-6.749s1.2 1.171 2.187 2.089a69.583 69.583 0 0 0 1.876 1.681s.384.008.307.645l-.409.321c-.181-.022-.183-.022-.341-.111-.218-.187-.435-.376-.651-.564a68.3 68.3 0 0 1-3.476-3.289l-.109-.526.437-.284.179.038zm-6.493-8.075s1.254 1.753 2.397 3.268c.37.491.753.973 1.141 1.451l.054.52-.459.246-.317-.168a44.111 44.111 0 0 1-3.203-4.424s-.34-.18-.101-.709c0 0 .231-.192.488-.184zm-3.911-9.377s.577 1.834 1.149 3.398c.253.691.532 1.371.832 2.043 0 0 .116.005.045.432 0 0 .036.379-.604.273 0 0-.557-.885-.885-1.719a29.87 29.87 0 0 1-1.231-3.886l.049-.388.473-.217.172.064zm-.387-10.276s.453.109.331.63c-.104.443-.103.467-.14.652-.291 1.541-.345 3.116-.267 4.678 0 0 .093.043-.115.396l-.504.13c-.455-.268-.316-.451-.325-.629-.086-1.826.026-3.664.439-5.443l.227-.358s.152-.064.354-.056zm5.062-8.87c.355.216.308.42.308.42s-1.259 1.563-2.223 2.945c-.542.777-1.143 1.835-1.143 1.835l-.462.24c-.397-.126-.399-.336-.399-.336l.04-.356c.92-1.672 2.08-3.201 3.362-4.613 0 0 .042-.208.517-.135zm7.892-6.669l.219.472-.187.307c-.256.187-.512.376-.767.565a73.318 73.318 0 0 0-3.585 2.839s.025.102-.387.152l-.41-.321.14-.502a57.567 57.567 0 0 1 2.063-1.685 94.149 94.149 0 0 1 2.323-1.754s.035-.277.591-.073zm8.371-6.016c.311.276.228.468.228.468a.627.627 0 0 1-.181.31c-1.458 1.106-2.956 2.162-4.453 3.217l-.471.163c-.388-.149-.377-.359-.377-.359l.187-.486a170.207 170.207 0 0 0 4.45-3.209s.029-.308.617-.104zm7.305-7.211c.59.564.309.419-.126 1.056-.133.196-.271.388-.412.578-.81 1.088-1.739 2.085-2.725 3.018 0 .001-.328.31-.347.324-.345.267-.514.082-.514.082s-.207-.033-.272-.444c0 0 .165-.338.488-.642.179-.171.179-.171.356-.343 1.077-1.063 2.077-2.203 2.896-3.47 0 0 .064-.388.656-.159zm1.334-9.889l.227.278c.556 1.853.742 3.824.412 5.732l-.203.346c-.382.165-.521.008-.521.008-.299-.29-.207-.478-.207-.478.022-.118.041-.236.059-.355.235-1.67.045-3.374-.438-4.983 0 0-.113-.178.152-.498 0 0 .273-.125.519-.05zm-5.196-8.834s1.367 1.595 2.29 2.929c.407.589.793 1.191 1.158 1.806 0 0 .176.744-.516.703 0 0-.958-1.348-1.731-2.427a40.35 40.35 0 0 0-1.781-2.297s-.172-.119-.054-.518c0 0 .093-.357.634-.196zm-7.117-7.604c.29.123.447.433.651.707.951 1.249 2.18 2.252 3.294 3.378 0 0 .194.07.27.47 0 0 .164.343-.473.464l-.33-.14c-.219-.223-.44-.444-.661-.665-1.092-1.08-2.276-2.076-3.138-3.347-.5-.737.204-.869.204-.869l.183.002zm.72-9.648c.676.616.357.225-.292 1.444-.691 1.32-1.214 2.756-1.293 4.249 0 0 .149.35-.493.443l-.417-.312c-.071-.489-.006-.509.015-.702.196-1.764.921-3.418 1.819-4.933 0 0 .051-.409.661-.189zm6.637-7.836s.54.193.131.769c-.23.217-.459.437-.687.657a54.877 54.877 0 0 0-3.182 3.344l-.507.146-.322-.41s.106-.334.119-.349c.591-.68.801-.906 1.182-1.314.857-.917 1.749-1.8 2.658-2.666 0 0 .014-.312.608-.177zm7.829-6.729l.244.459-.169.317a213.43 213.43 0 0 0-4 3.337l-.464.353-.502-.139s-.175-.115-.065-.516l.113-.145a199.42 199.42 0 0 1 4.325-3.617s.272-.125.518-.049zm8.05-6.449c.318.268.24.462.24.462a.618.618 0 0 1-.173.315c-1.321 1.057-2.644 2.111-3.967 3.167l-.591.427-.497-.158s-.17-.122-.044-.519l.118-.14c1.351-1.08 2.705-2.157 4.056-3.238l.339-.271c.187-.097.098-.178.519-.045zm7.94-6.569c.328.256.257.453.257.453l-.162.32a224.744 224.744 0 0 1-4.143 3.478l-.52.248-.402-.331.152-.499c.402-.329.803-.66 1.204-.991a244.639 244.639 0 0 0 3.036-2.561s.007-.275.578-.117zm7.485-7.064l.298.427-.131.335c-.182.19-.365.378-.549.567a103.161 103.161 0 0 1-3.41 3.303l-.422.202c-.404-.097-.421-.306-.421-.306-.064-.412.122-.507.122-.507a96.183 96.183 0 0 0 3.887-3.786s.099-.328.626-.235zm6.486-7.972l.356.379-.081.35a78.796 78.796 0 0 1-3.316 4.327c-.181.219-.63.307-.63.307-.366-.197-.329-.404-.329-.404.068-.658.375-.667.601-.945a80.593 80.593 0 0 0 2.595-3.389l.45-.566s.151-.066.354-.059zm5.558-8.709c.32.266.243.461.243.461s-.286.601-.531 1.042a90.55 90.55 0 0 1-2.341 3.964s-.394.469-.812.073c0 0-.163-.132-.014-.52a87.454 87.454 0 0 0 2.602-4.432l.334-.54c.187-.098.097-.179.519-.048zm4.357-9.341c.347.23.291.432.291.432s-.556 1.452-1.087 2.655c-.365.828-.742 1.65-1.129 2.468 0 0-.002.243-.373.463l-.505-.128c-.212-.357-.075-.515-.075-.515.142-.297.282-.595.422-.893a107.26 107.26 0 0 0 1.729-3.945l.368-.536s.16-.04.359-.001zm3.371-9.742c.368.194.333.4.333.4s-.914 4.124-1.86 5.711c0 0-.093.188-.505.128l-.311-.417s.584-1.755 1.043-3.18c.311-.966.717-2.325.717-2.325.066-.126.089-.362.583-.317zm2.464-9.985c.308.28.222.471.222.471-.266 1.787-.663 3.555-1.085 5.315 0 0 .047.234-.268.524l-.521-.022c-.281-.306-.179-.489-.179-.489.081-.333.161-.667.239-1.002.334-1.453.645-2.919.877-4.397 0 0-.088-.063.194-.375 0 0 .279-.112.521-.025zM334.474 305.698c1.697.103 3.395.17 5.095.191 0 0 .159-.079.392.094.298.221.34.752-.284.845-.352-.004-.704-.01-1.056-.017-1.52-.033-2.994-.029-4.59-.203-.645-.07-.665-.983.443-.91zm15.594-.309c.251.094.294.18.333.265.112.246.111.526-.373.661a84.363 84.363 0 0 1-5.539.434s-.379.187-.56-.301c-.095-.252-.074-.532.419-.632a81.726 81.726 0 0 0 5.423-.416s.137-.017.297-.011zm-26.034-.843c1.794.274 3.593.514 5.398.715 0 0 .968.88-.09.933a121.936 121.936 0 0 1-5.451-.722s-.452.119-.537-.412c-.046-.288.038-.615.68-.514zm36.224-1.072c.824.469.018.878-.714 1.073-1.585.416-3.185.77-4.796 1.069 0 0-.341.158-.55-.23-.128-.237-.145-.517.329-.683 1.835-.333 3.65-.75 5.442-1.242 0 0 .132-.02.289.013zm-46.455-.918c1.798.416 3.603.8 5.416 1.152 0 0 .256-.042.405.274.137.293.044.677-.512.66a146.66 146.66 0 0 1-4.751-.996s-.771-.042-1.017-.326c-.229-.263-.209-.811.459-.764zm55.993-2.763c.937.314.13.888-.592 1.234a53.083 53.083 0 0 1-4.094 1.745c-.223.084-.421.231-.682.158-.374-.105-.45-.659-.036-.891.201-.074.401-.15.602-.226a53.707 53.707 0 0 0 4.428-1.934s.184-.088.374-.086zm-65.925.112a175.59 175.59 0 0 0 5.397 1.525s.325-.005.348.427c.015.27-.088.53-.588.479a177.244 177.244 0 0 1-4.854-1.362s-.726-.022-.881-.466c-.097-.276-.036-.686.578-.603zm-9.753-3.257c.218.081.437.16.656.24 1.5.542 3.007 1.066 4.521 1.57 0 0 .294-.043.417.341.099.309-.043.678-.593.588a177.768 177.768 0 0 1-5.219-1.82s-.175.021-.334-.218c-.194-.291-.105-.831.552-.701zm84.532-2.226c.904.478-.081.971-.794 1.463a100.46 100.46 0 0 1-3.595 2.355s-.32.454-.755.088c-.206-.174-.325-.428.055-.757a96.957 96.957 0 0 0 4.448-2.934l.22-.155c.152-.074.062-.122.421-.06zm-94.044-1.649c.206.096.412.19.619.284 1.402.628 2.816 1.222 4.239 1.799l.29.117c.343.205.303.319.293.467-.018.269-.152.515-.642.403a113.047 113.047 0 0 1-5.036-2.146s-.34.007-.421-.41c-.056-.287.063-.685.658-.514zm102.05-4.79c.378.146.558.385.216.807a90.896 90.896 0 0 1-3.938 3.334s-.336.395-.659.408c-.372.015-.738-.373-.309-.836a90.494 90.494 0 0 0 3.968-3.324l.576-.397.146.008zm7.301-7.33c.565.35.02.917-.389 1.381a85.423 85.423 0 0 1-3.157 3.38s-.105.325-.529.26c-.32-.05-.587-.341-.262-.794a83.06 83.06 0 0 0 3.711-3.998s.033-.375.626-.229zm6.159-8.239c.618.279.124.931-.234 1.462a84.05 84.05 0 0 1-2.75 3.824s-.109.226-.411.218c-.324-.009-.625-.264-.359-.754a79.049 79.049 0 0 0 3.224-4.534s.092-.265.53-.216zm5.177-8.927c.367.257.165.734-.033 1.137a88.028 88.028 0 0 1-2.312 4.333s-.02.341-.446.386c-.322.034-.655-.18-.455-.7a82.022 82.022 0 0 0 2.546-4.789s.156-.532.7-.367zm3.845-9.561c.441.229.226.802.061 1.283a88.354 88.354 0 0 1-1.692 4.458s.009.479-.532.435c-.269-.021-.514-.158-.395-.647.115-.277.228-.556.341-.834a87.418 87.418 0 0 0 1.618-4.382s.117-.394.599-.313zm2.612-9.97c.519.193.299.895.177 1.47a88.732 88.732 0 0 1-1.11 4.559s-.077.355-.439.371c-.269.012-.529-.094-.472-.593a79.747 79.747 0 0 0 1.282-5.389s.053-.438.562-.418zm1.455-10.188c.424.252.265.909.223 1.459a79.132 79.132 0 0 1-.495 4.506s.097.287-.263.478c-.286.152-.674.077-.684-.48a78.234 78.234 0 0 0 .564-5.346s.011-.763.655-.617zm-4.961-5.606c1.628.1 3.257.184 4.887.209l.461.441c.074 1.267.354.689-.158 1.079-.297.227-.744-.04-.758-.545 0 0-2.336-.116-4.49-.248 0 0-.247.019-.398-.219-.173-.274-.129-.667.426-.719l.03.002zm-10.191-.993c1.779.235 3.563.436 5.349.61 0 0 .188-.074.419.129.279.245.277.778-.353.818a147.451 147.451 0 0 1-5.538-.628s-.148.041-.331-.134c-.278-.265-.234-.887.454-.795zm-10.186-1.774c.383.084.766.166 1.15.247 1.434.297 2.873.568 4.317.815 0 0 .247.004.374.259.144.29.059.676-.498.671a116.01 116.01 0 0 1-5.331-1.03s-.366.087-.542-.317c-.117-.268-.087-.682.53-.645zm-9.863-2.779c.251.089.502.176.753.263 1.513.514 3.041.979 4.582 1.402 0 0 .325-.001.345.431.012.269-.093.529-.593.473a79.798 79.798 0 0 1-5.25-1.632s-.205.026-.381-.231c-.197-.288-.114-.83.544-.706zm-9.356-4.394s1.447.87 2.652 1.502c.785.412 1.584.797 2.391 1.163 0 0 .203.026.266.332.065.317-.116.669-.653.522l-.489-.224a43.001 43.001 0 0 1-4.452-2.394s-.162-.016-.264-.271c-.109-.272-.067-.685.549-.63zm-7.372-7.006c.307.183.476.576.655.834.89 1.261 1.94 2.4 3.087 3.429 0 0 .258.071.221.454-.031.323-.308.606-.777.306-1.429-1.267-2.715-2.71-3.75-4.327 0 0-.137-.856.564-.696zm-2.491-7.584c.678.296.305.162.417 1.245.089.79.235 1.571.439 2.338 0 0 .064.399-.181.561-.754.497-1.125-1.676-1.252-3.518 0 0-.055-.687.577-.626zM347.041 186.898c.351.13.429.6.574 1.001.546 1.485 1.139 2.956 1.866 4.361 0 0 .119.231.063.413-.126.407-.618.576-1.049-.285-.778-1.58-1.431-3.218-2.014-4.879 0 0-.07-.712.56-.611zm-2.358-10.018c.391.15.374.657.433 1.085.229 1.607.542 3.203.928 4.783 0 0 .03.337-.178.489-.249.183-.618.058-.732-.266a48.348 48.348 0 0 1-1.02-5.424c-.028-.217-.047-.772.569-.667zm-.068-10.296c.715.17.377.701.324 1.155a39.502 39.502 0 0 0-.242 4.802s.023.224-.074.373c-.216.333-.811.206-.862-.248a39.946 39.946 0 0 1 .324-5.664s.116-.433.53-.418zm2.906-9.858c.63.22.302.677.15 1.012a34.22 34.22 0 0 0-1.736 4.823s-.133.326-.397.361c-.691.089-.351-1.231.014-2.332a33.688 33.688 0 0 1 1.264-3.238c.179-.395.191-.699.705-.626zm6.064-8.245c.628.242.304.691-.182 1.125a22.009 22.009 0 0 0-3.286 3.719s-.238.291-.512.232c-.435-.093-.321-.687.022-1.161a22.933 22.933 0 0 1 3.409-3.717c.125-.109.157-.266.549-.198zm8.939-5.007a.48.48 0 0 1 .039.896 31.224 31.224 0 0 0-4.961 2.231s-.292.174-.522.06c-.363-.181-.366-.636.256-.986a32.586 32.586 0 0 1 4.748-2.131s.148-.115.44-.07zm10.081-2.138c.417.171.406.815-.086.915-.269.028-.537.058-.805.088-1.569.187-3.13.441-4.675.775 0 0-.353.034-.506-.184-.177-.253-.044-.62.283-.727a45.393 45.393 0 0 1 2.85-.531 55.757 55.757 0 0 1 2.579-.335s.217-.029.36-.001zm14.891.228a47.77 47.77 0 0 1 2.08.307c.604.105.725 1.016.031.958a42.818 42.818 0 0 0-2.215-.333s-.276-.061-.374-.257c-.149-.298.059-.686.478-.675zm-8.376-.552a80 80 0 0 1 3.532.111s.381-.002.523.24c.174.297-.063.69-.432.705-.267-.016-.534-.029-.802-.043a72.159 72.159 0 0 0-4.535-.064s-.377.071-.581-.124c-.265-.252-.117-.755.312-.808a68.73 68.73 0 0 1 1.983-.017zM204.067 119.479c1.823.067 3.646.088 5.469.061 0 0 .07-.064.373.131l.111.508c-.224.351-.427.298-.427.298-1.854.035-3.709.007-5.562-.061 0 0-.219.167-.511-.31 0 0-.251-.278.278-.602 0 0 .148-.029.269-.025zm15.92-.659l.343.392s.082.193-.231.467l-.174.058a92.413 92.413 0 0 1-5.608.543l-.471-.259s-.139-.157.069-.517l.322-.158a92.202 92.202 0 0 0 5.556-.537l.194.011zm-20.962.343l.615.19.058.517c-.259.325-.456.252-.456.252-.073-.006-.66-.056-.687-.06-.83-.126-.259-.826-.259-.826s.309-.111.729-.073zm31.215-2.178c.308.281.221.472.221.472s-.328.381-.881.514a94.284 94.284 0 0 1-4.846 1.022l-.504-.049c-.289-.3-.19-.485-.19-.485.166-.381.374-.361.374-.361l.551-.101a97.347 97.347 0 0 0 4.797-1.035s.252-.059.478.023zm9.805-3.055s.537.198.123.77l-.156.095a89.148 89.148 0 0 1-5.16 1.742c-.166.05-.289.243-.696-.092 0 0-.172-.12-.051-.519 0 0 1.599-.626 2.89-1.059a95.49 95.49 0 0 0 2.692-.951s.161-.033.358.014zm161.619-3.875l.236.269c.53 1.557 1.037 3.121 1.55 4.683l.24.843s.042.206-.32.411c0 0-.174.117-.502-.139l-.09-.16c-.36-1.092-.717-2.185-1.077-3.277-.282-.854-.688-2.059-.688-2.059l.134-.503s.268-.135.517-.068zm-152.211-.25l.318.413s.071.197-.259.451c-1.603.797-3.23 1.555-4.872 2.269l-.253.109c-.407.086-.513-.095-.513-.095l-.108-.509.251-.257a105.848 105.848 0 0 0 5.078-2.356s.157-.05.358-.025zm8.982-5.001c.377.175.353.383.353.383-.016.416-.218.473-.218.473a119.971 119.971 0 0 1-4.764 2.759s-.126.293-.643.022l-.157-.497.225-.279a124.797 124.797 0 0 0 4.538-2.615l.483-.253.183.007zm139.312-4.327c.437.251.565.833.802 1.335a63.23 63.23 0 0 1 1.268 2.886c.229.557.58 1.073.474 1.558l-.439.281c-.304-.067-.36-.193-.427-.298l-.219-.554a65.489 65.489 0 0 0-1.965-4.426l-.088-.488c.291-.507.384-.321.594-.294zm-130.659-1.416l.217.287c.024.415-.172.492-.172.492a100.78 100.78 0 0 1-4.238 3.032c-.667.453-.714.317-.714.317l-.299-.198c-.162-.383-.003-.52-.003-.52s1.524-1.071 2.798-1.987c.614-.442 1.222-.891 1.828-1.345 0 0 .03-.27.583-.078zm125.32-7.295s1.109 1.416 1.938 2.645c.446.661.877 1.332 1.296 2.011l.148.505c-.175.378-.383.354-.383.354l-.473-.219a68.58 68.58 0 0 0-.396-.64 59.363 59.363 0 0 0-2.647-3.843l-.186-.475.348-.388s.164-.017.355.05zm-117.404.713c.332.25.265.449.265.449l-.156.323a143.08 143.08 0 0 1-4.249 3.65l-.377.131-.316-.169c-.196-.367-.051-.519-.051-.519s.44-.407.8-.706a151.41 151.41 0 0 0 3.438-2.97l.469-.234.177.045zm7.54-7.027l.277.441-.147.327c-1.277 1.206-2.552 2.414-3.835 3.616l-.597.369-.423-.304.12-.507c.472-.441.944-.884 1.415-1.327l2.298-2.171c.256-.241.235-.267.533-.455 0 0 .162-.034.359.011zm103.005-1.457s.498.448.855.811a85.492 85.492 0 0 1 3.079 3.321s.14-.019.199.438c0 0 .042.205-.319.412 0 0-.173.118-.502-.136a82.335 82.335 0 0 0-3.823-4.082l-.101-.51c.325-.487.405-.295.612-.254zm-95.365-5.48l.235.272c.05.413-.139.501-.139.501a177.91 177.91 0 0 0-3.921 3.492l-.265.244c-.355.216-.515.08-.515.08l-.242-.264c-.064-.412.123-.506.123-.506a181.596 181.596 0 0 1 3.928-3.514l.62-.354.176.049zm87.685-1.456s.622.472 1.061.843c1.096.93 2.178 1.875 3.243 2.84l.27.432c-.029.197-.446.49-.446.49l-.337-.122a129.073 129.073 0 0 0-4.072-3.543s-.208-.053-.325-.45l.248-.457s.156-.054.358-.033zm-79.521-4.868c.299.29.208.478.208.478l-.195.302c-.256.177-.511.356-.765.535-.261.186-.521.372-.781.56a91.436 91.436 0 0 0-2.903 2.214l-.382.129c-.396-.126-.398-.336-.398-.336l.158-.496a82.649 82.649 0 0 1 4.167-3.119c.249-.175.406-.458.891-.267zm71.36-1.477s.768.521 1.308.923c1.075.804 2.143 1.617 3.202 2.441 0 0 .2.044.327.431l-.235.465-.519-.039c-.33-.258-.662-.515-.994-.772a216.232 216.232 0 0 0-3.255-2.452l-.224-.164c-.28-.307-.177-.49-.177-.49l.384-.351.183.008zm-62.643-3.89l.275.231c.116.4-.057.518-.057.518s-.455.276-.832.475a86.35 86.35 0 0 0-3.76 2.128l-.595.319-.472-.22s-.153-.143.022-.52l.135-.124a84.817 84.817 0 0 1 4.478-2.542c.239-.125.4-.31.806-.265zm54.052-1.591a62.799 62.799 0 0 1 4.805 2.803l.29.352c.005.381-.543.559-.543.559s-.532-.302-.934-.555a62.228 62.228 0 0 0-3.897-2.246s-.195-.007-.386-.358c0 0-.115-.176.147-.499 0 0 .271-.128.518-.056zm-44.541-2.494c.333.249.265.448.265.448-.102.403-.312.417-.312.417l-.687.246a78.312 78.312 0 0 0-4.058 1.624l-.624.236c-.41-.071-.44-.279-.44-.279l.089-.513.15-.105a74.047 74.047 0 0 1 4.843-1.945c.237-.086.432-.216.774-.129zm34.927-1.436a55.463 55.463 0 0 1 5.301 1.903s.09-.031.289.27l-.105.511-.511.098a53.056 53.056 0 0 0-4.913-1.783l-.609-.328.05-.519s.242-.177.498-.152zm-25.079-1.264c.381.166.362.375.362.375-.008.415-.208.477-.208.477s-1.637.337-2.976.646c-1.119.259-2.635.669-2.635.669l-.494-.165s-.323-.188.083-.657l.163-.082a66.85 66.85 0 0 1 5.415-1.247s.13-.019.29-.016zm15.128-.693c1.799.18 3.59.445 5.364.804 0 0 .191-.064.368.37l-.203.48c-.247.101-.352.068-.352.068-.44-.089-.882-.172-1.324-.251a54.669 54.669 0 0 0-4.188-.561s-.356.135-.422-.51l.328-.404s.181-.019.429.004zm-4.971-.246c.408.081.433.289.433.289l-.102.511s-1.582.133-2.854.189a56.35 56.35 0 0 0-3.047.22l-.46-.245.051-.519s.959-.236 1.81-.298a56.865 56.865 0 0 1 4.169-.147zM193.04 89.744c.447.141.5.342.291.723l-.247.365c-.929 1.41-1.744 2.899-2.295 4.493 0 0-.086.195-.238.269-.384.186-.855-.03-.499-.993.6-1.589 1.435-3.082 2.386-4.488.055-.081.103-.423.602-.369zm6.702-7.814c.825.236.135.907-.379 1.441a100.267 100.267 0 0 0-3.155 3.426s-.205.211-.433.183c-.341-.043-.509-.47-.296-.772 1.229-1.423 2.531-2.79 3.842-4.143 0 0 .096-.162.421-.135zm7.069-7.486c.783.177.254.824-.169 1.305a112.24 112.24 0 0 1-3.209 3.443s-.273.362-.586.305c-.338-.062-.481-.498-.252-.787.299-.308.596-.618.893-.927.947-.995 1.881-2 2.784-3.034 0 0 .183-.314.539-.305zm5.749-8.527c.826.17.262.878-.051 1.44-.784 1.396-1.592 2.779-2.483 4.105 0 0-.233.263-.493.208-.702-.147.124-1.331.774-2.398a78.991 78.991 0 0 0 1.708-2.958s.153-.4.545-.397zm4.326-9.362c.82.222.246.933.002 1.554a82.362 82.362 0 0 1-1.726 4.036s-.091.387-.38.493c-.343.125-.729-.23-.586-.638a80.677 80.677 0 0 0 2.113-4.989s.134-.487.577-.456zm2.978-9.866c.693.22.329.712.235 1.137a67.894 67.894 0 0 1-1.315 4.894s-.056.15-.155.23c-.309.25-.834-.056-.742-.504a62.235 62.235 0 0 0 1.399-5.287s.044-.529.578-.47z" fill="#47d6ff" fill-rule="nonzero"/>
    <path d="M276.185 245.789H176.141v66.696h100.044v-66.696zm4.168-16.673c3.474 0 6.427 1.215 8.858 3.647 2.432 2.432 3.648 5.384 3.648 8.858v75.032c0 3.474-1.216 6.427-3.648 8.858-2.431 2.432-5.384 3.648-8.858 3.648h-108.38c-3.474 0-6.426-1.216-8.858-3.648-2.432-2.431-3.647-5.384-3.647-8.858v-75.032c0-3.474 1.215-6.426 3.647-8.858 2.432-2.432 5.384-3.647 8.858-3.647h108.38zm26.053 108.38c.869 0 1.607.304 2.215.912.607.607.911 1.346.911 2.214v9.379c0 3.474-1.215 6.426-3.647 8.858-2.432 2.432-5.384 3.648-8.858 3.648H155.299c-3.474 0-6.426-1.216-8.858-3.648-2.431-2.432-3.647-5.384-3.647-8.858v-9.379c0-.868.304-1.607.912-2.214a3.013 3.013 0 0 1 2.214-.912h62.006c1.042 0 1.563.434 1.563 1.302.348 2.085 1.303 3.778 2.866 5.081 1.563 1.302 3.387 1.954 5.471 1.954H234.5c2.084 0 3.908-.652 5.471-1.954 1.563-1.303 2.519-2.996 2.866-5.081 0-.868.521-1.302 1.563-1.302h62.006zM128.573 52.84l2.997 11.183c.146.548.116 1.059-.171 1.555-.286.496-.713.778-1.261.925l-9.072 2.43c-.234.063-.49.048-.688-.067-.277-.093-.418-.307-.481-.541l-2.347-8.76c-.062-.234-.203-.448-.402-.562a1.302 1.302 0 0 0-.767-.046l-5.63 1.508c-.235.063-.449.204-.563.403-.172.297-.187.553-.124.787l2.347 8.759c.062.235.047.491-.067.689-.172.297-.386.438-.62.501l-9.072 2.431c-.548.147-1.059.116-1.555-.17-.495-.286-.778-.714-.924-1.261L97.176 61.42c-.084-.312-.068-.568.103-.865l11.476-15.984c.193-.219.406-.36.641-.423a1.31 1.31 0 0 1 .767.046l17.929 8.104c.298.172.439.386.523.698l-.042-.156zm5.333-6.374l-8.015-3.636-2.913-10.871c-.063-.234-.204-.448-.402-.563a1.31 1.31 0 0 0-.767-.046l-4.38 1.174c-.234.063-.448.204-.562.402-.172.298-.187.553-.125.788l1.53 5.709-8.511-3.922c-.85-.359-1.716-.463-2.577-.232-.86.23-1.558.753-2.115 1.489L89.584 58.425a.922.922 0 0 0-.067.689c-.015.256.126.469.345.662l2.605 1.9c.219.193.475.208.709.146.235-.063.449-.204.641-.424l14.334-20.018c.193-.219.407-.36.641-.423.235-.063.491-.048.767.046l22.423 10.169c.276.094.532.109.767.046.234-.063.448-.204.541-.48l1.306-2.948c.093-.277.109-.533.046-.767-.141-.214-.282-.427-.481-.542l-.255-.015zM402.108 114.303c-3.805 0-7.287.89-10.444 2.753a20.973 20.973 0 0 0-7.53 7.529c-1.862 3.158-2.834 6.639-2.834 10.445v3.886c0 .486.162.972.405 1.376.243.405.567.729.972.972l1.133.567c.081 2.429 1.053 4.453 2.834 6.153 1.7 1.7 3.805 2.591 6.234 2.591h1.943c.567 0 1.053-.162 1.458-.567.405-.405.567-.89.567-1.457v-14.25c0-.567-.162-1.052-.567-1.457-.405-.405-.891-.567-1.458-.567h-1.943a8.657 8.657 0 0 0-3.481.729 9.312 9.312 0 0 0-2.996 2.024v-.162c0-2.834.729-5.425 2.105-7.773a15.401 15.401 0 0 1 5.587-5.586 15.116 15.116 0 0 1 7.772-2.105c2.834 0 5.425.728 7.773 2.105a15.39 15.39 0 0 1 5.586 5.586 15.117 15.117 0 0 1 2.106 7.773v.162a9.322 9.322 0 0 0-2.996-2.024 9.046 9.046 0 0 0-3.563-.729h-1.943c-.566 0-1.052.162-1.457.567-.405.405-.567.89-.567 1.457v14.25c0 .567.162 1.052.567 1.457.405.405.891.567 1.457.567h1.943c2.429 0 4.534-.891 6.316-2.591 1.7-1.7 2.591-3.724 2.671-6.153l1.134-.567c.405-.243.729-.567.972-.972.242-.404.404-.89.404-1.376v-3.886c0-3.806-.89-7.287-2.752-10.445a20.98 20.98 0 0 0-7.53-7.529c-3.158-1.863-6.639-2.753-10.445-2.753h.567zM235.973 169.927c-1.173.314-2.226.764-3.138 1.427l-3.733-3.61 6.413-1.718c.547-.147.975-.429 1.261-.925.286-.495.317-1.006.17-1.554l-.67-2.502c-.147-.548-.429-.975-.925-1.262-.496-.286-1.007-.316-1.554-.17l-3.52.943c-.547.147-.954.507-1.24 1.003l-2.091 4.081-2.517-2.511c-.559-.521-1.19-.687-1.894-.498l-6.257 1.676c-.391.105-.682.267-.854.564a1.341 1.341 0 0 0-.14 1.044l.336 1.251c.104.391.345.662.642.834.298.171.652.244 1.043.139l5.162-1.383 2.235 2.084-12.044 3.227c-1.055-.807-2.203-1.338-3.444-1.592-1.476-.191-3.203-.064-5.236.481l-4.301 1.152c-.548.147-.975.429-1.261.925-.286.496-.317 1.007-.17 1.554.146.548.428.975.924 1.261.496.287 1.007.317 1.555.171l4.379-1.174c1.642-.44 3.061-.149 4.278.95l-.52 1.815c-1.1-.04-2.237.097-3.311.468a10.617 10.617 0 0 0-4.393 2.686 9.83 9.83 0 0 0-2.576 4.462 10.92 10.92 0 0 0-.109 5.226 9.9 9.9 0 0 0 2.535 4.769c1.301 1.412 2.887 2.328 4.703 2.848 1.815.519 3.662.527 5.46.045 2.268-.607 4.113-1.856 5.535-3.746 1.421-1.889 2.112-4.003 2.073-6.339l6.569-1.76c.548-.147.954-.507 1.24-1.003a1.63 1.63 0 0 0 .092-1.533c-.581-1.856-.672-3.76-.351-5.69.243-1.909.94-3.688 2.111-5.26l1.457 1.37a10.292 10.292 0 0 0-1.68 4.055 10.135 10.135 0 0 0 .194 4.474 10.035 10.035 0 0 0 2.649 4.571c1.259 1.255 2.824 2.093 4.64 2.612 1.737.541 3.505.57 5.304.088 1.799-.482 3.315-1.391 4.649-2.671a9.557 9.557 0 0 0 2.691-4.66c.441-1.795.449-3.641-.033-5.44-.482-1.799-1.391-3.315-2.728-4.55a12.19 12.19 0 0 0-4.66-2.69 10.03 10.03 0 0 0-5.283-.01l.333-.005zm-26.084 24.34c-1.721.461-3.374.233-4.961-.683-1.565-.837-2.589-2.156-3.05-3.876-.461-1.721-.234-3.374.682-4.961.859-1.487 2.177-2.511 3.898-2.972.313-.084.626-.168.959-.173l-1.634 6.724c-.224.731-.056 1.356.502 1.877.559.521 1.19.687 1.894.499l6.335-1.698c-.155 1.299-.686 2.447-1.514 3.423-.828.977-1.917 1.604-3.168 1.939l.057-.099zm30.287-8.032c-1.778.561-3.489.432-5.154-.463s-2.688-2.213-3.17-4.012c-.44-1.642-.27-3.197.589-4.684l5.628 5.365c.24.271.517.365.851.359.334-.006.646-.089.839-.309l.906-.997c.271-.24.443-.538.437-.871a1.121 1.121 0 0 0-.387-.819l-5.529-5.308c.37-.183.74-.366 1.131-.47 1.799-.482 3.452-.255 5.06.739 1.608.995 2.574 2.412 2.978 4.232.362 1.663.092 3.16-.709 4.548-.859 1.488-2.099 2.491-3.72 3.009l.25-.319zM316.349 143.585l-6.507-3.757c-.325-.188-.66-.208-1.02-.112l-.821.22c.98-2.297 1.158-4.71.498-7.174-.522-1.95-1.466-3.622-2.881-5.003a11.595 11.595 0 0 0-4.931-2.804c-1.903-.535-3.823-.515-5.773.007-1.95.523-3.623 1.466-5.004 2.881a11.31 11.31 0 0 0-2.855 4.945c-.535 1.903-.515 3.823.007 5.773.523 1.951 1.466 3.623 2.881 5.004a11.31 11.31 0 0 0 4.945 2.855c1.852.549 3.772.529 5.722.007 2.463-.66 4.464-2.021 5.964-4.018l.22.821c.096.359.281.639.606.827l6.507 3.757c.326.188.661.208 1.02.112.359-.097.64-.282.828-.607l1.052-1.822c.187-.325.208-.661.111-1.02-.096-.359-.281-.64-.606-.827l.037-.065zm-16.75-1.342c-1.18.316-2.341.297-3.518.007a6.26 6.26 0 0 1-3.058-1.766 6.569 6.569 0 0 1-1.739-2.999 7.132 7.132 0 0 1-.022-3.569c.304-1.126.919-2.116 1.794-2.956a6.572 6.572 0 0 1 2.999-1.738 7.12 7.12 0 0 1 3.569-.022 6.218 6.218 0 0 1 2.942 1.742 7.119 7.119 0 0 1 1.766 3.102c.317 1.18.297 2.34.008 3.518-.29 1.178-.839 2.205-1.714 3.044a7.13 7.13 0 0 1-3.102 1.767l.075-.13zM357.669 285.666c.081.14.213.235.398.285a.618.618 0 0 0 .486-.048l14.585-8.42a.619.619 0 0 0 .284-.398.617.617 0 0 0-.047-.487l-1.296-2.244a.614.614 0 0 0-.397-.284.62.62 0 0 0-.487.047l-14.585 8.421a.616.616 0 0 0-.284.398.614.614 0 0 0 .047.486l1.296 2.244zm4.123 5.847a.62.62 0 0 1-.487.047.619.619 0 0 1-.398-.284l-1.295-2.244a.62.62 0 0 1-.048-.487.624.624 0 0 1 .285-.398l14.584-8.42a.62.62 0 0 1 .487-.048c.184.05.317.145.398.285l1.295 2.244c.081.14.097.302.048.486a.618.618 0 0 1-.285.398l-14.584 8.421zm27.442-.886c.254-.208.402-.465.444-.77a1.346 1.346 0 0 0-.18-.878l-14.897-25.803c-.189-.327-.45-.535-.781-.624-.332-.089-.662-.039-.989.15l-24.681 14.249c-1.543.891-2.546 2.203-3.011 3.935-.464 1.733-.251 3.371.64 4.913l14.25 24.682c.89 1.542 2.202 2.546 3.935 3.01 1.732.464 3.37.251 4.913-.639l24.681-14.25c.327-.189.535-.449.624-.781.089-.332.039-.662-.15-.989l-.648-1.122a1.346 1.346 0 0 0-.67-.594 1.183 1.183 0 0 0-.889-.001c-.383-.34-.885-1.047-1.506-2.123-.62-1.075-.982-1.863-1.085-2.365zm-2.875 1.66c.258.662.643 1.437 1.156 2.325.512.888.991 1.609 1.435 2.162l-22.017 12.712c-.607.351-1.261.432-1.962.245-.7-.188-1.226-.586-1.577-1.193-.351-.608-.432-1.262-.244-1.963.187-.7.585-1.226 1.193-1.577l22.016-12.711zm-13.829-24.924l12.307 21.315-22.438 12.955a6.056 6.056 0 0 0-1.96 1.786l-11.295-19.563c-.35-.607-.432-1.261-.244-1.962.187-.7.585-1.226 1.193-1.577l22.437-12.954zM111.92 198.557a.622.622 0 0 0-.31-.378.622.622 0 0 0-.483-.08l-3.754 1.006-1.006-3.754a.622.622 0 0 0-.31-.378.622.622 0 0 0-.483-.08l-2.503.671a.618.618 0 0 0-.377.31.618.618 0 0 0-.081.483l1.006 3.754-3.754 1.006a.618.618 0 0 0-.377.31.618.618 0 0 0-.081.483l.671 2.502a.615.615 0 0 0 .311.378.615.615 0 0 0 .482.08l3.754-1.005 1.006 3.754a.616.616 0 0 0 .311.377.62.62 0 0 0 .482.081l2.503-.671a.624.624 0 0 0 .378-.311.62.62 0 0 0 .08-.482l-1.006-3.754 3.754-1.006a.624.624 0 0 0 .378-.311.62.62 0 0 0 .08-.482l-.671-2.503zm17.429-10.034c.886-.238 1.709-.137 2.469.302.761.439 1.259 1.101 1.497 1.988.237.886.137 1.709-.302 2.47-.439.76-1.102 1.259-1.988 1.496-.886.238-1.71.137-2.47-.302-.76-.439-1.259-1.102-1.496-1.988-.238-.886-.137-1.71.302-2.47.439-.76 1.101-1.259 1.988-1.496zm-3.329 7.597c.886-.237 1.709-.137 2.47.302.76.439 1.259 1.102 1.496 1.988.238.887.137 1.71-.302 2.47-.439.76-1.101 1.259-1.988 1.497-.886.237-1.709.136-2.47-.302-.76-.439-1.259-1.102-1.496-1.988-.238-.887-.137-1.71.302-2.47.439-.76 1.101-1.259 1.988-1.497zm-.18-10.681c1.825-.489 3.625-.496 5.401-.022a10.09 10.09 0 0 1 4.611 2.662c1.298 1.301 2.192 2.864 2.681 4.688.489 1.825.496 3.625.022 5.401a10.09 10.09 0 0 1-2.662 4.611 10.212 10.212 0 0 1-4.649 2.671c-1.799.482-3.54.501-5.223.058-.96-.246-2.101-.75-3.424-1.514l-.375-.15-6.569 1.76-.229.396c-.778 1.27-1.521 2.252-2.229 2.945-1.236 1.225-2.754 2.079-4.553 2.561a10.2 10.2 0 0 1-5.361.011 10.071 10.071 0 0 1-4.611-2.662c-1.299-1.3-2.192-2.863-2.681-4.688-.489-1.825-.497-3.625-.022-5.4a10.071 10.071 0 0 1 2.662-4.611c1.3-1.299 2.863-2.193 4.688-2.682l22.523-6.035zm-1.006-3.754l-22.523 6.036c-2.503.67-4.646 1.901-6.429 3.692a14.043 14.043 0 0 0-3.664 6.346c-.659 2.44-.654 4.911.017 7.414.67 2.502 1.901 4.645 3.692 6.429a14.046 14.046 0 0 0 6.347 3.664c2.439.659 4.911.654 7.413-.017 1.825-.489 3.458-1.276 4.9-2.361a13.876 13.876 0 0 0 3.557-3.928l3.598-.964a13.874 13.874 0 0 0 5.045 1.623c1.791.219 3.599.084 5.423-.405 2.503-.671 4.646-1.901 6.429-3.692a14.028 14.028 0 0 0 3.664-6.347c.66-2.44.654-4.911-.016-7.413-.671-2.503-1.902-4.646-3.693-6.429a14.034 14.034 0 0 0-6.346-3.664c-2.44-.66-4.911-.654-7.414.016zM358.688 71.408a9.84 9.84 0 0 0-4.667 2.759 11.049 11.049 0 0 0-2.68 4.7c-.5 1.782-.48 3.579.061 5.39.541 1.811 1.471 3.35 2.788 4.617a10.173 10.173 0 0 0 4.629 2.574c1.769.448 3.553.431 5.351-.051 1.799-.482 3.332-1.382 4.6-2.699a10.492 10.492 0 0 0 2.612-4.64 10.127 10.127 0 0 0-.001-5.322 10.15 10.15 0 0 0-2.13-4.04 10.336 10.336 0 0 0-3.62-2.718l.597-1.836 10.917 9.145c.358.295.746.387 1.163.275l4.067-1.09c1.16 2.036 2.828 3.517 5.004 4.443 2.176.926 4.411 1.081 6.705.467 1.825-.489 3.387-1.383 4.688-2.681a10.082 10.082 0 0 0 2.662-4.611c.474-1.776.467-3.576-.022-5.401-.489-1.825-1.379-3.374-2.671-4.649a10.484 10.484 0 0 0-4.611-2.662c-1.782-.5-3.586-.506-5.411-.017a10.33 10.33 0 0 0-4.107 2.19l-3.445-2.849 4.379-1.173c.365-.098.634-.295.805-.593.172-.297.209-.629.111-.994-.097-.365-.295-.633-.593-.805-.297-.171-.628-.208-.993-.111l-6.57 1.761a.936.936 0 0 0-.591.451.941.941 0 0 0-.096.739l.42 1.564-10.636 2.85 1.865-5.865 4.614-1.236a.936.936 0 0 0 .591-.452.934.934 0 0 0 .096-.738l-.168-.626a.934.934 0 0 0-.451-.591.937.937 0 0 0-.739-.096l-5.318 1.425c-.469.126-.785.406-.948.841l-3.782 12.162c-1.471-.277-2.963-.212-4.475.193zm34.725 9.471c-1.616.433-3.188.352-4.717-.245a8.3 8.3 0 0 1-3.74-2.853l8.368-2.242c.521-.14.84-.463.955-.969.116-.506-.038-.926-.463-1.259l-7.23-6.025a7.479 7.479 0 0 1 2.804-1.422c2.085-.559 4.054-.304 5.905.764 1.851 1.069 3.056 2.646 3.614 4.732.559 2.085.304 4.053-.764 5.904-1.069 1.851-2.646 3.056-4.732 3.615zm-9.519-5.496a7.57 7.57 0 0 1-.163-3.267 7.433 7.433 0 0 1 1.178-2.956l5.32 4.526-6.335 1.697zm-5.631 1.509l-9.642-8.146 11.965-3.206 2.292 1.985c-.857 1.179-1.421 2.518-1.69 4.015a10.229 10.229 0 0 0 .203 4.514l-3.128.838zm-14.568 11.95c-1.394.429-2.777.479-4.151.148a7.635 7.635 0 0 1-3.588-1.972c-1.018-.984-1.716-2.18-2.093-3.588-.559-2.086-.304-4.054.765-5.905 1.068-1.851 2.646-3.056 4.731-3.615a8.217 8.217 0 0 1 3.04-.228l-2.384 7.68a1.1 1.1 0 0 0 .11.725c.122.247.301.394.538.443l.652.244a1.1 1.1 0 0 0 .725-.11c.246-.122.394-.301.442-.538l2.406-7.602a7.698 7.698 0 0 1 2.608 2.068c.708.872 1.19 1.888 1.445 3.049.479 1.995.2 3.872-.838 5.631-1.037 1.759-2.507 2.949-4.408 3.57zM432.621 203.874c-2.23 4.674-3.556 7.918-4.057 9.712-.544 1.949-.555 3.795-.012 5.46.601 1.765 1.643 3.149 3.106 4.23l-6.196 18.277a1.633 1.633 0 0 0 .076 1.534c.281.499.684.863 1.229 1.016l4.991 1.393c.546.153 1.079.05 1.578-.231.499-.281.785-.706.86-1.273l4.169-18.843c1.812-.167 3.42-.81 4.748-1.953 1.406-1.12 2.353-2.705 2.897-4.655.501-1.793 1.048-5.255 1.562-10.408.052-.489-.172-.888-.653-1.275-.481-.386-1.104-.56-1.794-.5-.611.081-1.032.384-1.262.908l-3.07 10.995c-.122.134-.378.147-.768.038-.389-.109-.602-.252-.658-.352l2.469-11.247c.074-.568-.129-1.045-.61-1.431a2.073 2.073 0 0 0-1.637-.458c-.611.082-1.032.385-1.263.909l-3.716 10.899c-.099.056-.355.069-.745-.04-.39-.109-.602-.252-.637-.43l3.071-10.995c.074-.568-.129-1.045-.687-1.453a2.076 2.076 0 0 0-1.638-.457c-.611.081-1.01.306-1.219.752l-.134-.122zm-15.373 19.833l-2.859 14.753a1.633 1.633 0 0 1-.86 1.273c-.499.281-1.032.385-1.578.232l-4.367-1.219c-.546-.153-.97-.439-1.251-.938-.281-.499-.307-1.01-.154-1.556l10.104-36.183c.152-.546.439-.971.938-1.252.499-.281 1.01-.306 1.556-.153 1.638.457 3.135 1.716 4.571 3.798s2.296 4.424 2.656 7.046c.373 2.879-.09 5.439-1.332 7.782-1.43 2.711-3.864 4.806-7.381 6.261l-.043.156zM365.568 204.117c.313.084.526.28.639.59a.953.953 0 0 1-.114.892l-1.128 1.709c-.216.389-.559.521-1.028.395l-2.268-.608a5.697 5.697 0 0 1 1.384 2.341c.267.882.275 1.792.023 2.73l-1.006 3.754c-.335 1.252-1.045 2.235-2.131 2.95l-1.299 4.848c-.14.522-.441.916-.904 1.183a1.873 1.873 0 0 1-1.476.191l-3.754-1.005a1.875 1.875 0 0 1-1.183-.904 1.873 1.873 0 0 1-.191-1.476l.838-3.128-20.02-5.365-.839 3.128a1.871 1.871 0 0 1-.903 1.183 1.875 1.875 0 0 1-1.477.191l-3.753-1.006a1.871 1.871 0 0 1-1.183-.903 1.873 1.873 0 0 1-.191-1.476l1.299-4.849c-.583-1.162-.707-2.369-.371-3.62l1.005-3.754c.252-.939.714-1.723 1.385-2.353a5.71 5.71 0 0 1 2.37-1.335l-2.268-.608c-.469-.125-.7-.411-.693-.856l-.123-2.044a.951.951 0 0 1 .348-.829.891.891 0 0 1 .848-.192l4.301 1.152 1.066-1.474c1.247-1.734 2.891-2.97 4.933-3.708s4.105-.828 6.191-.269l9.541 2.557c2.086.558 3.828 1.668 5.227 3.328 1.399 1.66 2.205 3.553 2.418 5.677l.186 1.81 4.301 1.153zm-28.587-7.492l-1.969 2.657 21.272 5.7-.377-3.286a5.074 5.074 0 0 0-1.199-2.878 5.047 5.047 0 0 0-2.613-1.664l-9.541-2.557a5.059 5.059 0 0 0-3.096.135 5.082 5.082 0 0 0-2.477 1.893zm-6.986 11.371l.313.084c1.042.279 1.812.43 2.309.451.824.054 1.313-.207 1.467-.78.182-.678-.062-1.595-.73-2.752-.667-1.157-1.34-1.826-2.018-2.008-.678-.182-1.331-.091-1.959.272-.628.362-1.033.882-1.214 1.56-.182.678-.091 1.331.271 1.959.363.628.883 1.033 1.561 1.214zm26.277 7.041c.678.182 1.331.091 1.959-.271.628-.363 1.032-.883 1.214-1.561.182-.678.091-1.331-.271-1.959-.363-.628-.883-1.032-1.561-1.214-.678-.182-1.595.062-2.752.729-1.157.668-1.826 1.341-2.008 2.019-.153.574.14 1.043.88 1.409.441.23 1.183.485 2.226.764l.313.084zM95.921 263.608l1.676 6.256c.147.548.116 1.059-.17 1.555-.287.496-.714.778-1.261.924l-.626.168 3.521 13.139c.146.547.116 1.058-.171 1.554-.286.496-.713.778-1.261.925l-.625.167.838 3.129c.147.547.116 1.058-.17 1.554-.287.496-.714.778-1.261.925l-3.754 1.005c-.548.147-1.059.116-1.555-.17-.495-.286-.778-.713-.924-1.261l-.839-3.128-15.015 4.023.838 3.129c.147.547.116 1.058-.17 1.554-.286.496-.714.778-1.261.925l-3.754 1.005c-.547.147-1.059.116-1.554-.17-.496-.286-.778-.713-.925-1.261l-.838-3.128-.626.168c-.547.146-1.058.116-1.554-.171-.496-.286-.778-.713-.925-1.261l-3.52-13.138-.626.167c-.547.147-1.059.116-1.554-.17-.496-.286-.778-.713-.925-1.261l-1.676-6.256c-.147-.548-.116-1.059.17-1.555.286-.496.713-.778 1.261-.924l.625-.168-1.005-3.754c-.315-1.173.195-2.399 1.508-3.757 1.312-1.357 3.214-2.705 5.727-3.965 2.512-1.26 5.322-2.348 8.528-3.207 3.207-.86 6.262-1.343 9.068-1.508 2.806-.165 5.127.051 6.942.571 1.816.519 2.87 1.326 3.185 2.499l1.005 3.754.626-.168c.548-.146 1.059-.116 1.554.171.496.286.778.713.925 1.261l.548-.147zm-28.31 21.667c-.86.231-1.48.732-1.938 1.525a3.247 3.247 0 0 0-.331 2.52c.231.86.732 1.48 1.525 1.938.716.479 1.503.603 2.363.373.861-.231 1.481-.732 1.939-1.525.401-.694.525-1.482.294-2.342a3.24 3.24 0 0 0-1.546-2.017 3.522 3.522 0 0 0-2.498-.252l.192-.22zm22.331-5.816c-.86.231-1.48.732-1.938 1.526a3.24 3.24 0 0 0-.331 2.519c.23.86.732 1.48 1.525 1.938.715.479 1.503.604 2.363.373a3.243 3.243 0 0 0 2.017-1.546c.4-.694.524-1.482.294-2.342a3.247 3.247 0 0 0-1.546-2.017 3.53 3.53 0 0 0-2.499-.252l.115-.199zm1.214-4.851l-3.017-11.262c-.147-.547-.429-.975-.925-1.261-.496-.286-1.007-.317-1.554-.17l-23.775 6.37c-.547.147-.974.429-1.261.925-.286.496-.317 1.007-.17 1.554l3.018 11.262c.146.547.428.975.924 1.261.496.286 1.007.317 1.555.17l23.774-6.37c.548-.147.975-.429 1.261-.925.286-.496.317-1.007.17-1.554zM60.067 144.803c.935.54 1.541 1.326 1.817 2.358.277 1.032.145 2.016-.395 2.951l-13.925 24.12c-.27.468-.663.771-1.179.909a1.876 1.876 0 0 1-1.476-.198l-2.805-1.619c-1.079 1.87-2.651 3.081-4.716 3.635-2.064.553-4.031.29-5.901-.79-1.87-1.079-3.081-2.651-3.635-4.716-.553-2.064-.29-4.032.79-5.901l-8.975-5.182c-1.08 1.87-2.652 3.081-4.716 3.634-2.065.554-4.032.29-5.902-.789-1.869-1.08-3.081-2.652-3.634-4.716-.553-2.065-.29-4.032.789-5.902L3.4 150.978a1.872 1.872 0 0 1-.909-1.179 1.878 1.878 0 0 1 .197-1.475l.648-1.122c.27-.468.663-.771 1.179-.909a1.88 1.88 0 0 1 1.476.197l.561.324 4.372-7.572c.539-.935 1.325-1.541 2.358-1.818l11.06-2.963c1.032-.277 2.015-.145 2.95.395l3.086 1.781 1.943-3.366c.539-.935 1.325-1.54 2.358-1.817 1.032-.277 2.016-.145 2.95.395l22.438 12.954zm-49.074 15.046c.934.54 1.918.672 2.95.395 1.033-.277 1.819-.882 2.358-1.817.54-.935.672-1.919.395-2.951s-.882-1.818-1.817-2.358c-.935-.54-1.919-.671-2.951-.395-1.032.277-1.818.883-2.358 1.817-.54.935-.671 1.919-.395 2.951.277 1.032.883 1.818 1.818 2.358zM23.9 147.856l4.534-7.853-3.085-1.782-11.06 2.964-.486.841 10.097 5.83zm9.53 24.948c.935.539 1.919.671 2.951.394 1.032-.276 1.818-.882 2.358-1.817.54-.935.671-1.918.395-2.951-.277-1.032-.883-1.818-1.818-2.358-.935-.539-1.918-.671-2.95-.394-1.033.276-1.819.882-2.358 1.817-.54.935-.672 1.918-.395 2.951.276 1.032.882 1.818 1.817 2.358zM311.644 96.016l-2.201-8.211 3.542-4.302 5.217 1.955 2.201 8.211a.922.922 0 0 0 .689.696c.362.098.671.001.928-.291a11.534 11.534 0 0 0 2.909-5.096c.537-1.96.533-3.957-.012-5.99-.545-2.033-1.556-3.774-3.034-5.222a11.78 11.78 0 0 0-5.245-2.995 11.465 11.465 0 0 0-6.079-.006c-2.033.545-3.774 1.556-5.222 3.034a11.552 11.552 0 0 0-2.966 5.195c-.53 1.986-.522 3.996.023 6.029.544 2.033 1.539 3.765 2.984 5.194a11.532 11.532 0 0 0 5.067 2.958c.369.125.685.054.949-.212a.924.924 0 0 0 .25-.947zm-10.857-11.424a12.758 12.758 0 0 1 1.663-5.056 12.753 12.753 0 0 1 3.547-3.968l-19.91-11.429c-1.204-.739-2.51-.92-3.918-.543-1.408.377-2.464 1.177-3.171 2.4-.706 1.223-.87 2.539-.493 3.946.377 1.408 1.187 2.449 2.429 3.122l19.853 11.528zM285.6 71.394a1.872 1.872 0 0 1-1.476-.191 1.873 1.873 0 0 1-.904-1.183 1.873 1.873 0 0 1 .191-1.476 1.875 1.875 0 0 1 1.183-.904 1.874 1.874 0 0 1 1.476.192c.463.267.764.661.904 1.182.14.522.076 1.014-.191 1.477a1.877 1.877 0 0 1-1.183.903zM248.482 16.237c.935.54 1.54 1.326 1.817 2.359.276 1.032.145 2.015-.395 2.95l-16.84 29.169c-.54.935-1.326 1.541-2.359 1.817-1.032.277-2.015.145-2.95-.394l-15.707-9.068c-.934-.54-1.54-1.326-1.817-2.359-.276-1.032-.145-2.015.395-2.95l16.841-29.169c.539-.935 1.325-1.541 2.358-1.817 1.032-.277 2.015-.145 2.95.394l15.707 9.068zM221.197 45.36c.608.351 1.262.432 1.962.245.701-.188 1.226-.586 1.577-1.194.351-.607.433-1.261.245-1.962-.188-.7-.585-1.226-1.193-1.577-.608-.351-1.262-.432-1.962-.244-.701.187-1.226.585-1.577 1.193-.351.607-.433 1.261-.245 1.962.188.7.585 1.226 1.193 1.577zm12.225-3.039l12.631-21.876a.934.934 0 0 0 .098-.738.936.936 0 0 0-.454-.59l-14.023-8.096a.938.938 0 0 0-.738-.099.94.94 0 0 0-.59.454l-12.63 21.877a.938.938 0 0 0-.099.738.936.936 0 0 0 .455.589l14.023 8.097c.234.135.48.168.738.098a.934.934 0 0 0 .589-.454zM192.316 105.312l.909-5.46-8.835-5.1-4.274 3.516-8.484-4.899-11.659 20.194 29.169 16.841 11.659-20.194-8.485-4.898zm3.202-8.623c.608.351 1.051.825 1.33 1.422.278.597.372 1.244.282 1.94l-.557 3.231 6.171 3.562c.935.54 1.54 1.326 1.817 2.358.277 1.033.145 2.016-.395 2.951l-11.659 20.194c-.539.935-1.325 1.54-2.358 1.817-1.032.277-2.015.145-2.95-.395l-29.169-16.84c-.935-.54-1.541-1.326-1.817-2.358-.277-1.033-.145-2.016.394-2.951l11.659-20.194c.54-.935 1.326-1.541 2.358-1.817 1.033-.277 2.016-.145 2.951.395l6.17 3.562 2.178-1.828a4.218 4.218 0 0 1 2.173-.849 3.693 3.693 0 0 1 2.237.497l9.185 5.303zm-19.989 23.612c1.543.89 3.172 1.333 4.89 1.327a9.594 9.594 0 0 0 4.811-1.289c1.49-.854 2.68-2.052 3.571-3.595.89-1.542 1.333-3.172 1.327-4.889a9.588 9.588 0 0 0-1.289-4.812c-.854-1.49-2.052-2.68-3.594-3.571-1.543-.89-3.173-1.333-4.89-1.327a9.594 9.594 0 0 0-4.811 1.289c-1.49.854-2.681 2.052-3.571 3.595-.891 1.542-1.333 3.172-1.328 4.889a9.589 9.589 0 0 0 1.29 4.812c.853 1.49 2.051 2.68 3.594 3.571zm7.773-13.463c1.402.81 2.31 1.989 2.725 3.537.415 1.548.218 3.024-.592 4.426-.809 1.403-1.988 2.311-3.537 2.726-1.548.415-3.024.218-4.426-.592-1.402-.81-2.311-1.989-2.726-3.537-.415-1.549-.217-3.024.592-4.426.81-1.403 1.989-2.311 3.537-2.726 1.549-.415 3.024-.218 4.427.592z" fill="#fff" fill-rule="nonzero"/>
    <path d="M122.793 136.761a9.887 9.887 0 0 1-.977 2.335c-2.732 4.733-8.793 6.357-13.525 3.625-4.733-2.733-6.357-8.793-3.624-13.526a9.87 9.87 0 0 1 6.095-4.633c-1.162 4.237.62 8.891 4.601 11.19a9.868 9.868 0 0 0 7.43 1.009zM324.767 256.991a8.519 8.519 0 0 1-1.319-1.731c-2.348-4.068-.952-9.277 3.115-11.626 4.068-2.348 9.278-.952 11.626 3.115a8.486 8.486 0 0 1 .83 6.529c-2.655-2.686-6.885-3.36-10.307-1.384a8.478 8.478 0 0 0-3.945 5.097z" fill="#ffe858"/>
    <circle cx="49.267" cy="219.415" r="8.783" fill="#ff998e"/>
    <circle cx="313.973" cy="36.395" r="7.304" fill="#c3ff63"/>
    <circle cx="363.901" cy="165.241" r="5.714" fill="#75ffbf"/>
    <circle cx="56.516" cy="92.846" r="7.249" fill="#75ffbf"/>
    <path d="M123.531 242.7l-10.861-8.203-6.818 3.379 10.862 8.204 6.817-3.38z" fill="#70ffed"/>
    <path d="M249.753 135.06l10.862-8.204 6.817 3.38-10.862 8.203-6.817-3.379z" fill="#ff7d4b"/>
    <path d="M183.495 67.221l-5.898-12.267-7.608-.118 5.898 12.267 7.608.118zM294.39 199.238l-6.534-13.587-7.633-.118 6.533 13.587 7.634.118zM223.082 282.133l14.422 1.305 8.979 8.979c1.062.96 1.787 2.206 1.78 3.677-.012 2.599-2.109 4.72-4.708 4.709-1.52-.007-3.009-1.096-3.95-2.146l-16.523-16.524zm1.757-11.36h9.37s4.729.687 4.685-3.747c-.044-4.431-4.678-3.749-4.685-3.748h-16.865l7.495 7.495zm-12.648 0l-8.426-8.762a4.733 4.733 0 0 1 3.272-8.102v-.001h27.172s14.082.016 14.054 13.118c-.029 13.992-14.054 13.117-14.054 13.117l.017.017h-13.117l-.017-.017h-5.575v15.928h-.047v.023a4.711 4.711 0 0 1-4.708 4.709 4.71 4.71 0 0 1-4.662-5.374v-21.376c-.072-2.153.846-3.266 2.811-3.28h3.28z" fill="#fff"/>
</svg>
